RU-AD 64
RU-ALT 63
RU-AMU 70
RU-ARK 26
RU-AST 67
RU-BA 80
RU-BEL 40
RU-BRY 41
RU-BU 55
RU-CE 52
RU-CHE 51
RU-CHU 86
RU-CU 54
RU-DA 56
RU-IN 83
RU-IRK 62
RU-IVA 43
RU-KAM 85
RU-KB 28
RU-KC 77
RU-KDA 15
RU-KEM 29
RU-KGD 7
RU-KGN 44
RU-KHA 19
RU-KHM 34
RU-KIR 8
RU-KK 37
RU-KL 65
RU-KLU 27
RU-KO 47
RU-KOS 61
RU-KR 78
RU-KRS 71
RU-KYA 14
RU-LEN 22
RU-LIP 16
RU-MAG 76
RU-ME 72
RU-MO 68
RU-MOS 3
RU-MOW 2
RU-MUR 53
RU-NEN 88
RU-NGR 45
RU-NIZ 9
RU-NVS 18
RU-OMS 58
RU-ORE 46
RU-ORL 30
RU-PER 21
RU-PNZ 36
RU-PRI 31
RU-PSK 59
RU-ROS 60
RU-RYA 32
RU-SA 11
RU-SAK 66
RU-SAM 6
RU-SAR 48
RU-SE 90
RU-SMO 75
RU-SPE 4
RU-STA 49
RU-SVE 5
RU-TAM 24
RU-TOM 39
RU-TА 12
RU-TUL 17
RU-TVE 23
RU-TY 79
RU-TYU 20
RU-UD 33
RU-ULY 50
RU-VGG 42
RU-VLA 73
RU-VLG 57
RU-VOR 13
RU-YAN 81
RU-YAR 38
RU-YEV 74
RU-ZAB 35
UA-40 69
UA-43 10
